Message[302] F:\MIERDA\DCCDECOMANOLO_V5_30.ASM 154 : Register in operand not in bank 0.  Ensure that bank bits are correct.
Message[302] F:\MIERDA\DCCDECOMANOLO_V5_30.ASM 156 : Register in operand not in bank 0.  Ensure that bank bits are correct.
Message[302] F:\MIERDA\DCCDECOMANOLO_V5_30.ASM 158 : Register in operand not in bank 0.  Ensure that bank bits are correct.
Message[302] F:\MIERDA\DCCDECOMANOLO_V5_30.ASM 621 : Register in operand not in bank 0.  Ensure that bank bits are correct.
Message[302] F:\MIERDA\DCCDECOMANOLO_V5_30.ASM 624 : Register in operand not in bank 0.  Ensure that bank bits are correct.
Message[302] F:\MIERDA\DCCDECOMANOLO_V5_30.ASM 626 : Register in operand not in bank 0.  Ensure that bank bits are correct.
Message[302] F:\MIERDA\DCCDECOMANOLO_V5_30.ASM 627 : Register in operand not in bank 0.  Ensure that bank bits are correct.
Message[302] F:\MIERDA\DCCDECOMANOLO_V5_30.ASM 628 : Register in operand not in bank 0.  Ensure that bank bits are correct.
Message[302] F:\MIERDA\DCCDECOMANOLO_V5_30.ASM 630 : Register in operand not in bank 0.  Ensure that bank bits are correct.
Message[302] F:\MIERDA\DCCDECOMANOLO_V5_30.ASM 1110 : Register in operand not in bank 0.  Ensure that bank bits are correct.
Message[302] F:\MIERDA\DCCDECOMANOLO_V5_30.ASM 1250 : Register in operand not in bank 0.  Ensure that bank bits are correct.
Message[302] F:\MIERDA\DCCDECOMANOLO_V5_30.ASM 1252 : Register in operand not in bank 0.  Ensure that bank bits are correct.
Message[302] F:\MIERDA\DCCDECOMANOLO_V5_30.ASM 1253 : Register in operand not in bank 0.  Ensure that bank bits are correct.
Message[302] F:\MIERDA\DCCDECOMANOLO_V5_30.ASM 1254 : Register in operand not in bank 0.  Ensure that bank bits are correct.
Message[302] F:\MIERDA\DCCDECOMANOLO_V5_30.ASM 1256 : Register in operand not in bank 0.  Ensure that bank bits are correct.
Message[302] F:\MIERDA\DCCDECOMANOLO_V5_30.ASM 1261 : Register in operand not in bank 0.  Ensure that bank bits are correct.
Message[302] F:\MIERDA\DCCDECOMANOLO_V5_30.ASM 1263 : Register in operand not in bank 0.  Ensure that bank bits are correct.
Message[302] F:\MIERDA\DCCDECOMANOLO_V5_30.ASM 1265 : Register in operand not in bank 0.  Ensure that bank bits are correct.
Message[302] F:\MIERDA\DCCDECOMANOLO_V5_30.ASM 1266 : Register in operand not in bank 0.  Ensure that bank bits are correct.
